p-chart • shewhart.hybrid
…
library(httr)
library(DT)
library(tidyverse)
library(broom)
library(readr)
library(lubridate)
library(magrittr)
library(plotly)
library(pander)
panderOptions("table.split.table", Inf)

View the data (included in the shewhart.hybrid package:)

print(Pchart_Test_Data)
#> # A tibble: 448 × 4
#>    date       place     N     n
#>    <date>     <chr> <dbl> <dbl>
#>  1 2020-09-10 0-5       1     0
#>  2 2020-09-11 0-5      35     0
#>  3 2020-09-14 0-5      28     0
#>  4 2020-09-15 0-5      22     0
#>  5 2020-09-16 0-5      16     0
#>  6 2020-09-17 0-5      15     0
#>  7 2020-09-18 0-5      12     0
#>  8 2020-09-21 0-5      15     0
#>  9 2020-09-22 0-5      16     0
#> 10 2020-09-23 0-5      11     0
#> # … with 438 more rows
…
